%YAML 1.1
%TAG !u! tag:unity3d.com,2011:
--- !u!1 &1838605857493582
GameObject:
  m_ObjectHideFlags: 0
  m_CorrespondingSourceObject: {fileID: 0}
  m_PrefabInstance: {fileID: 0}
  m_PrefabAsset: {fileID: 0}
  serializedVersion: 6
  m_Component:
  - component: {fileID: 4470821890965162}
  - component: {fileID: 114439535378040154}
  m_Layer: 0
  m_Name: LanguagePool 1
  m_TagString: Untagged
  m_Icon: {fileID: 0}
  m_NavMeshLayer: 0
  m_StaticEditorFlags: 0
  m_IsActive: 1
--- !u!4 &4470821890965162
Transform:
  m_ObjectHideFlags: 0
  m_CorrespondingSourceObject: {fileID: 0}
  m_PrefabInstance: {fileID: 0}
  m_PrefabAsset: {fileID: 0}
  m_GameObject: {fileID: 1838605857493582}
  m_LocalRotation: {x: 0, y: 0, z: 0, w: 1}
  m_LocalPosition: {x: 80, y: 15, z: 0}
  m_LocalScale: {x: 1, y: 1, z: 1}
  m_Children: []
  m_Father: {fileID: 0}
  m_RootOrder: 0
  m_LocalEulerAnglesHint: {x: 0, y: 0, z: 0}
--- !u!114 &114439535378040154
MonoBehaviour:
  m_ObjectHideFlags: 0
  m_CorrespondingSourceObject: {fileID: 0}
  m_PrefabInstance: {fileID: 0}
  m_PrefabAsset: {fileID: 0}
  m_GameObject: {fileID: 1838605857493582}
  m_Enabled: 1
  m_EditorHideFlags: 0
  m_Script: {fileID: 11500000, guid: 1bb31b379892d485ea323cd56eb9010c, type: 3}
  m_Name: 
  m_EditorClassIdentifier: 
  m_languageDatas:
  - m_key: Play
    m_language:
      languages:
      - systemLanguage: 10
        languageText: Play
        fontSize: 60
      - systemLanguage: 1
        languageText: "\u0627\u0644\u067E\u0644\u064A"
        fontSize: 0
      - systemLanguage: 42
        languageText: "\u0634\u0631\u0648\u0639"
        fontSize: 0
  - m_key: Finish
    m_language:
      languages:
      - systemLanguage: 10
        languageText: finish
        fontSize: 0
      - systemLanguage: 1
        languageText: "\u0627\u0644\u0641\u064A\u0646\u064A\u0634"
        fontSize: 0
      - systemLanguage: 42
        languageText: "\u067E\u0627\u064A\u0627\u0646"
        fontSize: 0
  - m_key: setting
    m_language:
      languages:
      - systemLanguage: 10
        languageText: Setting
        fontSize: 0
      - systemLanguage: 1
        languageText: "\u0627\u0644\u0633\u062A\u064A\u0646\u06AF"
        fontSize: 0
      - systemLanguage: 42
        languageText: "\u062A\u0646\u0638\u064A\u0645\u0627\u062A"
        fontSize: 0
  - m_key: loading
    m_language:
      languages:
      - systemLanguage: 10
        languageText: loading
        fontSize: 0
      - systemLanguage: 1
        languageText: "\u0627\u0644\u0644\u0648\u062F\u064A\u0646\u06AF"
        fontSize: 0
      - systemLanguage: 42
        languageText: "\u062F\u0631\u062D\u0627\u0644 \u0628\u0627\u0631\u06AF\u0630\u0627\u0631\u064A"
        fontSize: 0
